index
…
Aggregated simulations

tar_read(simulations)
#> # A tibble: 4,000 × 7
#>    p_value efficacy sample_size tar_batch tar_rep    tar_seed tar_group
#>      <dbl> <chr>          <dbl>     <int>   <int>       <int>     <int>
#>  1 0.00436 strong           700         1       1  1242392391         3
#>  2 0.00383 strong           700         1       2  1005013755         3
#>  3 0.00468 strong           700         1       3   848869470         3
#>  4 0.00932 strong           700         1       4   407471040         3
#>  5 0.0131  strong           700         1       5  2136134101         3
#>  6 0.00887 strong           700         1       6 -1329548112         3
#>  7 0.00481 strong           700         1       7  1808542408         3
#>  8 0.0207  strong           700         1       8  1569885781         3
#>  9 0.00588 strong           700         1       9 -1140470982         3
#> 10 0.0709  strong           700         1      10    89908551         3
#> # ℹ 3,990 more rows
#> # ℹ Use `print(n = ...)` to see more rows
…
